<svg width="31" height="21" viewBox="0 0 31 21" fill="none" xmlns="http://www.w3.org/2000/svg">
<path d="M10.5847 2.2596C10.4776 2.14848 10.3503 2.06032 10.2102 2.00017C10.0701 1.94002 9.91986 1.90906 9.76817 1.90906C9.61647 1.90906 9.46627 1.94002 9.32615 2.00017C9.18604 2.06032 9.05878 2.14848 8.95165 2.2596L1.19242 10.2873C1.10689 10.3756 1.03904 10.4805 0.992737 10.596C0.946438 10.7115 0.922607 10.8353 0.922607 10.9603C0.922607 11.0853 0.946438 11.2091 0.992737 11.3246C1.03904 11.44 1.10689 11.5449 1.19242 11.6332L8.95165 19.661C9.40373 20.1287 10.1326 20.1287 10.5847 19.661C11.0368 19.1932 11.0368 18.4391 10.5847 17.9714L3.81266 10.9651L10.5939 3.94915C11.0368 3.48142 11.0368 2.72733 10.5847 2.2596Z" fill="black"/>
<path d="M3.22913 11.1562H23.25" stroke="black" stroke-width="2" stroke-linecap="round" stroke-linejoin="round"/>
</svg>
